<?xml version="1.0" encoding="iso-8859-1"?>
<!-- Generator: Adobe Illustrator 21.0.2, SVG Export Plug-In . SVG Version: 6.00 Build 0)  -->
<svg xmlns="http://www.w3.org/2000/svg" xmlns:xlink="http://www.w3.org/1999/xlink" version="1.1" x="0px" y="0px" viewBox="0 0 40 40" style="enable-background:new 0 0 40 40;" xml:space="preserve">
<g id="Layer_1">
	<g>
		<path style="fill:#98CCFD;" d="M13.5,9.5v-3H21c0.727,0,2.133,0.804,3.141,1.497C23.118,8.692,21.701,9.5,21,9.5H13.5z"/>
		<path style="fill:#4788C7;" d="M21,7c0.436,0,1.337,0.439,2.228,0.995C22.319,8.556,21.408,9,21,9h-7V7H21 M21,6c-1.369,0-8,0-8,0    v4c0,0,6.675,0,8,0s4-2,4-2S22.369,6,21,6L21,6z"/>
	</g>
	<g>
		<path style="fill:#98CCFD;" d="M13.5,33.5v-3H21c0.727,0,2.133,0.804,3.141,1.497C23.118,32.692,21.701,33.5,21,33.5H13.5z"/>
		<path style="fill:#4788C7;" d="M21,31c0.436,0,1.337,0.439,2.228,0.995C22.319,32.556,21.408,33,21,33h-7v-2H21 M21,30    c-1.369,0-8,0-8,0v4c0,0,6.675,0,8,0s4-2,4-2S22.369,30,21,30L21,30z"/>
	</g>
	<g>
		<polygon style="fill:#DFF0FE;" points="1.693,27.5 3.5,22.081 3.5,17.919 1.693,12.5 3.793,12.5 7.5,16.207 7.5,23.793     3.793,27.5   "/>
		<g>
			<path style="fill:#4788C7;" d="M3.586,13L7,16.414v7.172L3.586,27H2.387l1.561-4.684L4,22.162V22v-4v-0.162l-0.051-0.154     L2.387,13H3.586 M4,12H1l2,6v4l-2,6h3l4-4v-8L4,12L4,12z"/>
		</g>
	</g>
	<g>
		<polygon style="fill:#B6DCFE;" points="9.5,38.5 9.5,1.5 11.76,1.5 23.5,16.175 23.5,23.825 11.76,38.5   "/>
		<g>
			<path style="fill:#4788C7;" d="M11.519,2L23,16.351v7.298L11.519,38H10V2H11.519 M12,1H9v38h3l12-15v-8L12,1L12,1z"/>
		</g>
	</g>
	<g>
		<path style="fill:#DFF0FE;" d="M6,23.5c-1.379,0-2.5-1.122-2.5-2.5v-2c0-1.378,1.121-2.5,2.5-2.5h21    c7.505,0,10.547,2.623,11.352,3.498C37.54,20.867,34.464,23.5,27,23.5H6z"/>
		<g>
			<path style="fill:#4788C7;" d="M27,17c6.454,0,9.509,1.999,10.633,2.999C36.504,21.004,33.449,23,27,23H6c-1.103,0-2-0.897-2-2     v-2c0-1.103,0.897-2,2-2H27 M27,16H6c-1.657,0-3,1.343-3,3v2c0,1.657,1.343,3,3,3h21c9.333,0,12-4,12-4S36.333,16,27,16L27,16z"/>
		</g>
	</g>
	<path style="fill:#4788C7;" d="M7,21H1c-0.552,0-1-0.448-1-1v0c0-0.552,0.448-1,1-1h6c0.552,0,1,0.448,1,1v0   C8,20.552,7.552,21,7,21z"/>
	<polygon style="fill:#4788C7;" points="14,2 10.667,2 10.667,1 13.333,1  "/>
	<polygon style="fill:#4788C7;" points="14,38 10,38 10,39 13.333,39  "/>
	<path style="fill:#4788C7;" d="M29,21h-2c-0.552,0-1-0.448-1-1v0c0-0.552,0.448-1,1-1h2c0.552,0,1,0.448,1,1v0   C30,20.552,29.552,21,29,21z"/>
	<path style="fill:#4788C7;" d="M11.5,1h4C15.775,1,16,1.225,16,1.5v0C16,1.775,15.775,2,15.5,2h-4C11.225,2,11,1.775,11,1.5v0   C11,1.225,11.225,1,11.5,1z"/>
	<path style="fill:#4788C7;" d="M13.5,38h2c0.275,0,0.5,0.225,0.5,0.5l0,0c0,0.275-0.225,0.5-0.5,0.5h-2c-0.275,0-0.5-0.225-0.5-0.5   l0,0C13,38.225,13.225,38,13.5,38z"/>
</g>
<g id="Layer_2">
</g>
</svg>
